(kicad_symbol_lib
	(version 20231120)
	(generator "kicad_symbol_editor")
	(generator_version "8.0")
	(symbol "DSP56301"
		(pin_names
			(offset 1.016)
		)
		(exclude_from_sim no)
		(in_bom yes)
		(on_board yes)
		(property "Reference" "U"
			(at 0 2.54 0)
			(effects
				(font
					(size 1.27 1.27)
				)
			)
		)
		(property "Value" "DSP56301"
			(at 1.27 -8.89 0)
			(effects
				(font
					(size 1.27 1.27)
				)
			)
		)
		(property "Footprint" "Package_QFP:PQFP-208_28x28mm_P0.5mm"
			(at 0 -1.27 0)
			(effects
				(font
					(size 1.27 1.27)
				)
				(hide yes)
			)
		)
		(property "Datasheet" "https://www.nxp.com/docs/en/data-sheet/DSP56301DS.pdf"
			(at 0 -1.27 0)
			(effects
				(font
					(size 1.27 1.27)
				)
				(hide yes)
			)
		)
		(property "Description" "24-Bit Digital Signal Processor with PCI bus interface"
			(at 0 0 0)
			(effects
				(font
					(size 1.27 1.27)
				)
				(hide yes)
			)
		)
		(property "ki_keywords" "DSP PCI"
			(at 0 0 0)
			(effects
				(font
					(size 1.27 1.27)
				)
				(hide yes)
			)
		)
		(property "ki_fp_filters" "PQFP*28x28mm*P0.5mm*"
			(at 0 0 0)
			(effects
				(font
					(size 1.27 1.27)
				)
				(hide yes)
			)
		)
		(symbol "DSP56301_0_1"
			(rectangle
				(start -43.18 111.76)
				(end 48.26 -116.84)
				(stroke
					(width 0.254)
					(type default)
				)
				(fill
					(type background)
				)
			)
			(circle
				(center 0 -2.54)
				(radius 20.32)
				(stroke
					(width 0)
					(type default)
				)
				(fill
					(type none)
				)
			)
			(text "JTAG"
				(at 36.83 101.6 0)
				(effects
					(font
						(size 1.524 1.524)
						(bold yes)
					)
				)
			)
			(text "PCI"
				(at 27.94 12.7 0)
				(effects
					(font
						(size 1.524 1.524)
						(bold yes)
					)
				)
			)
			(text "PLL"
				(at -21.59 -78.74 0)
				(effects
					(font
						(size 1.524 1.524)
						(bold yes)
					)
				)
			)
			(text "PORT_A"
				(at -30.48 86.36 0)
				(effects
					(font
						(size 1.524 1.524)
						(bold yes)
					)
				)
			)
			(text "PORT_C"
				(at 24.13 -52.07 0)
				(effects
					(font
						(size 1.524 1.524)
						(bold yes)
					)
				)
			)
			(text "PORT_D"
				(at 24.13 -69.85 0)
				(effects
					(font
						(size 1.524 1.524)
						(bold yes)
					)
				)
			)
			(text "PORT_E"
				(at -19.05 -88.9 0)
				(effects
					(font
						(size 1.524 1.524)
						(bold yes)
					)
				)
			)
			(text "Timers"
				(at 33.02 -83.82 0)
				(effects
					(font
						(size 1.524 1.524)
						(bold yes)
					)
				)
			)
		)
		(symbol "DSP56301_1_1"
			(pin output line
				(at -50.8 -20.32 0)
				(length 7.62)
				(name "AA0/RAS0"
					(effects
						(font
							(size 1.27 1.27)
						)
					)
				)
				(number "1"
					(effects
						(font
							(size 1.27 1.27)
						)
					)
				)
			)
			(pin input inverted
				(at -50.8 -71.12 0)
				(length 7.62)
				(name "/RESET"
					(effects
						(font
							(size 1.27 1.27)
						)
					)
				)
				(number "10"
					(effects
						(font
							(size 1.27 1.27)
						)
					)
				)
			)
			(pin bidirectional line
				(at -50.8 -15.24 0)
				(length 7.62)
				(name "D23"
					(effects
						(font
							(size 1.27 1.27)
						)
					)
				)
				(number "100"
					(effects
						(font
							(size 1.27 1.27)
						)
					)
				)
			)
			(pin input line
				(at -50.8 -60.96 0)
				(length 7.62)
				(name "MODA/IRQA"
					(effects
						(font
							(size 1.27 1.27)
						)
					)
				)
				(number "101"
					(effects
						(font
							(size 1.27 1.27)
						)
					)
				)
			)
			(pin input line
				(at -50.8 -63.5 0)
				(length 7.62)
				(name "MODB/IRQB"
					(effects
						(font
							(size 1.27 1.27)
						)
					)
				)
				(number "102"
					(effects
						(font
							(size 1.27 1.27)
						)
					)
				)
			)
			(pin input line
				(at -50.8 -66.04 0)
				(length 7.62)
				(name "MODC/IRQC"
					(effects
						(font
							(size 1.27 1.27)
						)
					)
				)
				(number "105"
					(effects
						(font
							(size 1.27 1.27)
						)
					)
				)
			)
			(pin input line
				(at -50.8 -68.58 0)
				(length 7.62)
				(name "MODD/IRQD"
					(effects
						(font
							(size 1.27 1.27)
						)
					)
				)
				(number "106"
					(effects
						(font
							(size 1.27 1.27)
						)
					)
				)
			)
			(pin bidirectional line
				(at 55.88 10.16 180)
				(length 7.62)
				(name "HAD31"
					(effects
						(font
							(size 1.27 1.27)
						)
					)
				)
				(number "107"
					(effects
						(font
							(size 1.27 1.27)
						)
					)
				)
			)
			(pin bidirectional line
				(at 55.88 12.7 180)
				(length 7.62)
				(name "HAD30"
					(effects
						(font
							(size 1.27 1.27)
						)
					)
				)
				(number "108"
					(effects
						(font
							(size 1.27 1.27)
						)
					)
				)
			)
			(pin bidirectional line
				(at 55.88 15.24 180)
				(length 7.62)
				(name "HAD29"
					(effects
						(font
							(size 1.27 1.27)
						)
					)
				)
				(number "109"
					(effects
						(font
							(size 1.27 1.27)
						)
					)
				)
			)
			(pin power_in line
				(at 27.94 119.38 270)
				(length 7.62)
				(name "VCCPLL"
					(effects
						(font
							(size 1.27 1.27)
						)
					)
				)
				(number "11"
					(effects
						(font
							(size 1.27 1.27)
						)
					)
				)
			)
			(pin bidirectional line
				(at 55.88 17.78 180)
				(length 7.62)
				(name "HAD28"
					(effects
						(font
							(size 1.27 1.27)
						)
					)
				)
				(number "110"
					(effects
						(font
							(size 1.27 1.27)
						)
					)
				)
			)
			(pin power_in line
				(at -7.62 119.38 270)
				(length 7.62)
				(name "VCC"
					(effects
						(font
							(size 1.27 1.27)
						)
					)
				)
				(number "111"
					(effects
						(font
							(size 1.27 1.27)
						)
					)
				)
			)
			(pin power_in line
				(at -7.62 -124.46 90)
				(length 7.62)
				(name "GND"
					(effects
						(font
							(size 1.27 1.27)
						)
					)
				)
				(number "112"
					(effects
						(font
							(size 1.27 1.27)
						)
					)
				)
			)
			(pin bidirectional line
				(at 55.88 20.32 180)
				(length 7.62)
				(name "HAD27"
					(effects
						(font
							(size 1.27 1.27)
						)
					)
				)
				(number "113"
					(effects
						(font
							(size 1.27 1.27)
						)
					)
				)
			)
			(pin bidirectional line
				(at 55.88 22.86 180)
				(length 7.62)
				(name "HAD26"
					(effects
						(font
							(size 1.27 1.27)
						)
					)
				)
				(number "114"
					(effects
						(font
							(size 1.27 1.27)
						)
					)
				)
			)
			(pin bidirectional line
				(at 55.88 25.4 180)
				(length 7.62)
				(name "HAD25"
					(effects
						(font
							(size 1.27 1.27)
						)
					)
				)
				(number "115"
					(effects
						(font
							(size 1.27 1.27)
						)
					)
				)
			)
			(pin bidirectional line
				(at 55.88 27.94 180)
				(length 7.62)
				(name "HAD24"
					(effects
						(font
							(size 1.27 1.27)
						)
					)
				)
				(number "116"
					(effects
						(font
							(size 1.27 1.27)
						)
					)
				)
			)
			(pin bidirectional line
				(at 55.88 -2.54 180)
				(length 7.62)
				(name "HC3/HBE3"
					(effects
						(font
							(size 1.27 1.27)
						)
					)
				)
				(number "117"
					(effects
						(font
							(size 1.27 1.27)
						)
					)
				)
			)
			(pin bidirectional line
				(at 55.88 30.48 180)
				(length 7.62)
				(name "HAD23"
					(effects
						(font
							(size 1.27 1.27)
						)
					)
				)
				(number "118"
					(effects
						(font
							(size 1.27 1.27)
						)
					)
				)
			)
			(pin bidirectional line
				(at 55.88 33.02 180)
				(length 7.62)
				(name "HAD22"
					(effects
						(font
							(size 1.27 1.27)
						)
					)
				)
				(number "119"
					(effects
						(font
							(size 1.27 1.27)
						)
					)
				)
			)
			(pin input line
				(at -50.8 -81.28 0)
				(length 7.62)
				(name "PCAP"
					(effects
						(font
							(size 1.27 1.27)
						)
					)
				)
				(number "12"
					(effects
						(font
							(size 1.27 1.27)
						)
					)
				)
			)
			(pin bidirectional line
				(at 55.88 35.56 180)
				(length 7.62)
				(name "HAD21"
					(effects
						(font
							(size 1.27 1.27)
						)
					)
				)
				(number "120"
					(effects
						(font
							(size 1.27 1.27)
						)
					)
				)
			)
			(pin bidirectional line
				(at 55.88 38.1 180)
				(length 7.62)
				(name "HAD20"
					(effects
						(font
							(size 1.27 1.27)
						)
					)
				)
				(number "121"
					(effects
						(font
							(size 1.27 1.27)
						)
					)
				)
			)
			(pin power_in line
				(at -5.08 119.38 270)
				(length 7.62)
				(name "VCC"
					(effects
						(font
							(size 1.27 1.27)
						)
					)
				)
				(number "122"
					(effects
						(font
							(size 1.27 1.27)
						)
					)
				)
			)
			(pin power_in line
				(at -5.08 -124.46 90)
				(length 7.62)
				(name "GND"
					(effects
						(font
							(size 1.27 1.27)
						)
					)
				)
				(number "123"
					(effects
						(font
							(size 1.27 1.27)
						)
					)
				)
			)
			(pin bidirectional line
				(at 55.88 40.64 180)
				(length 7.62)
				(name "HAD19"
					(effects
						(font
							(size 1.27 1.27)
						)
					)
				)
				(number "124"
					(effects
						(font
							(size 1.27 1.27)
						)
					)
				)
			)
			(pin bidirectional line
				(at 55.88 43.18 180)
				(length 7.62)
				(name "HAD18"
					(effects
						(font
							(size 1.27 1.27)
						)
					)
				)
				(number "125"
					(effects
						(font
							(size 1.27 1.27)
						)
					)
				)
			)
			(pin bidirectional line
				(at 55.88 45.72 180)
				(length 7.62)
				(name "HAD17"
					(effects
						(font
							(size 1.27 1.27)
						)
					)
				)
				(number "126"
					(effects
						(font
							(size 1.27 1.27)
						)
					)
				)
			)
			(pin bidirectional line
				(at 55.88 48.26 180)
				(length 7.62)
				(name "HAD16"
					(effects
						(font
							(size 1.27 1.27)
						)
					)
				)
				(number "127"
					(effects
						(font
							(size 1.27 1.27)
						)
					)
				)
			)
			(pin bidirectional line
				(at 55.88 0 180)
				(length 7.62)
				(name "HC2/HBE2"
					(effects
						(font
							(size 1.27 1.27)
						)
					)
				)
				(number "128"
					(effects
						(font
							(size 1.27 1.27)
						)
					)
				)
			)
			(pin input line
				(at 55.88 -30.48 180)
				(length 7.62)
				(name "HIDSEL"
					(effects
						(font
							(size 1.27 1.27)
						)
					)
				)
				(number "129"
					(effects
						(font
							(size 1.27 1.27)
						)
					)
				)
			)
			(pin power_in line
				(at 27.94 -124.46 90)
				(length 7.62)
				(name "GNDP"
					(effects
						(font
							(size 1.27 1.27)
						)
					)
				)
				(number "13"
					(effects
						(font
							(size 1.27 1.27)
						)
					)
				)
			)
			(pin bidirectional inverted
				(at 55.88 -33.02 180)
				(length 7.62)
				(name "/HFRAME"
					(effects
						(font
							(size 1.27 1.27)
						)
					)
				)
				(number "130"
					(effects
						(font
							(size 1.27 1.27)
						)
					)
				)
			)
			(pin power_in line
				(at 22.86 119.38 270)
				(length 7.62)
				(name "VCC"
					(effects
						(font
							(size 1.27 1.27)
						)
					)
				)
				(number "131"
					(effects
						(font
							(size 1.27 1.27)
						)
					)
				)
			)
			(pin power_in line
				(at 22.86 -124.46 90)
				(length 7.62)
				(name "GND"
					(effects
						(font
							(size 1.27 1.27)
						)
					)
				)
				(number "132"
					(effects
						(font
							(size 1.27 1.27)
						)
					)
				)
			)
			(pin bidirectional inverted
				(at 55.88 -7.62 180)
				(length 7.62)
				(name "/HIRDY"
					(effects
						(font
							(size 1.27 1.27)
						)
					)
				)
				(number "133"
					(effects
						(font
							(size 1.27 1.27)
						)
					)
				)
			)
			(pin bidirectional inverted
				(at 55.88 -5.08 180)
				(length 7.62)
				(name "/HTRDY"
					(effects
						(font
							(size 1.27 1.27)
						)
					)
				)
				(number "134"
					(effects
						(font
							(size 1.27 1.27)
						)
					)
				)
			)
			(pin power_in line
				(at -2.54 119.38 270)
				(length 7.62)
				(name "VCC"
					(effects
						(font
							(size 1.27 1.27)
						)
					)
				)
				(number "135"
					(effects
						(font
							(size 1.27 1.27)
						)
					)
				)
			)
			(pin power_in line
				(at -2.54 -124.46 90)
				(length 7.62)
				(name "GND"
					(effects
						(font
							(size 1.27 1.27)
						)
					)
				)
				(number "136"
					(effects
						(font
							(size 1.27 1.27)
						)
					)
				)
			)
			(pin input line
				(at 55.88 -93.98 180)
				(length 7.62)
				(name "PVCL"
					(effects
						(font
							(size 1.27 1.27)
						)
					)
				)
				(number "137"
					(effects
						(font
							(size 1.27 1.27)
						)
					)
				)
			)
			(pin bidirectional inverted
				(at 55.88 -10.16 180)
				(length 7.62)
				(name "/HDEVSEL"
					(effects
						(font
							(size 1.27 1.27)
						)
					)
				)
				(number "138"
					(effects
						(font
							(size 1.27 1.27)
						)
					)
				)
			)
			(pin bidirectional inverted
				(at 55.88 -27.94 180)
				(length 7.62)
				(name "/HSTOP"
					(effects
						(font
							(size 1.27 1.27)
						)
					)
				)
				(number "139"
					(effects
						(font
							(size 1.27 1.27)
						)
					)
				)
			)
			(pin power_in line
				(at 30.48 -124.46 90)
				(length 7.62)
				(name "GND1P"
					(effects
						(font
							(size 1.27 1.27)
						)
					)
				)
				(number "14"
					(effects
						(font
							(size 1.27 1.27)
						)
					)
				)
			)
			(pin bidirectional inverted
				(at 55.88 -12.7 180)
				(length 7.62)
				(name "/HLOCK"
					(effects
						(font
							(size 1.27 1.27)
						)
					)
				)
				(number "140"
					(effects
						(font
							(size 1.27 1.27)
						)
					)
				)
			)
			(pin bidirectional inverted
				(at 55.88 -17.78 180)
				(length 7.62)
				(name "/HPERR"
					(effects
						(font
							(size 1.27 1.27)
						)
					)
				)
				(number "141"
					(effects
						(font
							(size 1.27 1.27)
						)
					)
				)
			)
			(pin output inverted
				(at 55.88 -25.4 180)
				(length 7.62)
				(name "/HSERR"
					(effects
						(font
							(size 1.27 1.27)
						)
					)
				)
				(number "142"
					(effects
						(font
							(size 1.27 1.27)
						)
					)
				)
			)
			(pin power_in line
				(at 0 -124.46 90)
				(length 7.62)
				(name "GND"
					(effects
						(font
							(size 1.27 1.27)
						)
					)
				)
				(number "143"
					(effects
						(font
							(size 1.27 1.27)
						)
					)
				)
			)
			(pin power_in line
				(at 0 119.38 270)
				(length 7.62)
				(name "VCC"
					(effects
						(font
							(size 1.27 1.27)
						)
					)
				)
				(number "144"
					(effects
						(font
							(size 1.27 1.27)
						)
					)
				)
			)
			(pin bidirectional line
				(at 55.88 -15.24 180)
				(length 7.62)
				(name "HPAR"
					(effects
						(font
							(size 1.27 1.27)
						)
					)
				)
				(number "145"
					(effects
						(font
							(size 1.27 1.27)
						)
					)
				)
			)
			(pin output inverted
				(at 55.88 -22.86 180)
				(length 7.62)
				(name "/HREQ"
					(effects
						(font
							(size 1.27 1.27)
						)
					)
				)
				(number "146"
					(effects
						(font
							(size 1.27 1.27)
						)
					)
				)
			)
			(pin input inverted
				(at 55.88 -38.1 180)
				(length 7.62)
				(name "/HRST"
					(effects
						(font
							(size 1.27 1.27)
						)
					)
				)
				(number "147"
					(effects
						(font
							(size 1.27 1.27)
						)
					)
				)
			)
			(pin input clock
				(at 55.88 -35.56 180)
				(length 7.62)
				(name "HCLK"
					(effects
						(font
							(size 1.27 1.27)
						)
					)
				)
				(number "148"
					(effects
						(font
							(size 1.27 1.27)
						)
					)
				)
			)
			(pin input inverted
				(at 55.88 -20.32 180)
				(length 7.62)
				(name "/HGNT"
					(effects
						(font
							(size 1.27 1.27)
						)
					)
				)
				(number "149"
					(effects
						(font
							(size 1.27 1.27)
						)
					)
				)
			)
			(pin bidirectional inverted
				(at -50.8 -45.72 0)
				(length 7.62)
				(name "/BB"
					(effects
						(font
							(size 1.27 1.27)
						)
					)
				)
				(number "15"
					(effects
						(font
							(size 1.27 1.27)
						)
					)
				)
			)
			(pin bidirectional line
				(at 55.88 2.54 180)
				(length 7.62)
				(name "HC1/HBE1"
					(effects
						(font
							(size 1.27 1.27)
						)
					)
				)
				(number "150"
					(effects
						(font
							(size 1.27 1.27)
						)
					)
				)
			)
			(pin bidirectional line
				(at 55.88 50.8 180)
				(length 7.62)
				(name "HAD15"
					(effects
						(font
							(size 1.27 1.27)
						)
					)
				)
				(number "151"
					(effects
						(font
							(size 1.27 1.27)
						)
					)
				)
			)
			(pin bidirectional line
				(at 55.88 53.34 180)
				(length 7.62)
				(name "HAD14"
					(effects
						(font
							(size 1.27 1.27)
						)
					)
				)
				(number "152"
					(effects
						(font
							(size 1.27 1.27)
						)
					)
				)
			)
			(pin bidirectional line
				(at 55.88 55.88 180)
				(length 7.62)
				(name "HAD13"
					(effects
						(font
							(size 1.27 1.27)
						)
					)
				)
				(number "153"
					(effects
						(font
							(size 1.27 1.27)
						)
					)
				)
			)
			(pin bidirectional line
				(at 55.88 58.42 180)
				(length 7.62)
				(name "HAD12"
					(effects
						(font
							(size 1.27 1.27)
						)
					)
				)
				(number "154"
					(effects
						(font
							(size 1.27 1.27)
						)
					)
				)
			)
			(pin power_in line
				(at 2.54 -124.46 90)
				(length 7.62)
				(name "GND"
					(effects
						(font
							(size 1.27 1.27)
						)
					)
				)
				(number "155"
					(effects
						(font
							(size 1.27 1.27)
						)
					)
				)
			)
			(pin power_in line
				(at 2.54 119.38 270)
				(length 7.62)
				(name "VCC"
					(effects
						(font
							(size 1.27 1.27)
						)
					)
				)
				(number "156"
					(effects
						(font
							(size 1.27 1.27)
						)
					)
				)
			)
			(pin bidirectional line
				(at 55.88 60.96 180)
				(length 7.62)
				(name "HAD11"
					(effects
						(font
							(size 1.27 1.27)
						)
					)
				)
				(number "159"
					(effects
						(font
							(size 1.27 1.27)
						)
					)
				)
			)
			(pin input inverted
				(at -50.8 -43.18 0)
				(length 7.62)
				(name "/BG"
					(effects
						(font
							(size 1.27 1.27)
						)
					)
				)
				(number "16"
					(effects
						(font
							(size 1.27 1.27)
						)
					)
				)
			)
			(pin bidirectional line
				(at 55.88 63.5 180)
				(length 7.62)
				(name "HAD10"
					(effects
						(font
							(size 1.27 1.27)
						)
					)
				)
				(number "160"
					(effects
						(font
							(size 1.27 1.27)
						)
					)
				)
			)
			(pin bidirectional line
				(at 55.88 66.04 180)
				(length 7.62)
				(name "HAD9"
					(effects
						(font
							(size 1.27 1.27)
						)
					)
				)
				(number "161"
					(effects
						(font
							(size 1.27 1.27)
						)
					)
				)
			)
			(pin bidirectional line
				(at 55.88 68.58 180)
				(length 7.62)
				(name "HAD8"
					(effects
						(font
							(size 1.27 1.27)
						)
					)
				)
				(number "162"
					(effects
						(font
							(size 1.27 1.27)
						)
					)
				)
			)
			(pin bidirectional line
				(at 55.88 5.08 180)
				(length 7.62)
				(name "HC0/HBE0"
					(effects
						(font
							(size 1.27 1.27)
						)
					)
				)
				(number "163"
					(effects
						(font
							(size 1.27 1.27)
						)
					)
				)
			)
			(pin bidirectional line
				(at 55.88 71.12 180)
				(length 7.62)
				(name "HAD7"
					(effects
						(font
							(size 1.27 1.27)
						)
					)
				)
				(number "164"
					(effects
						(font
							(size 1.27 1.27)
						)
					)
				)
			)
			(pin bidirectional line
				(at 55.88 73.66 180)
				(length 7.62)
				(name "HAD6"
					(effects
						(font
							(size 1.27 1.27)
						)
					)
				)
				(number "165"
					(effects
						(font
							(size 1.27 1.27)
						)
					)
				)
			)
			(pin bidirectional line
				(at 55.88 76.2 180)
				(length 7.62)
				(name "HAD5"
					(effects
						(font
							(size 1.27 1.27)
						)
					)
				)
				(number "166"
					(effects
						(font
							(size 1.27 1.27)
						)
					)
				)
			)
			(pin bidirectional line
				(at 55.88 78.74 180)
				(length 7.62)
				(name "HAD4"
					(effects
						(font
							(size 1.27 1.27)
						)
					)
				)
				(number "167"
					(effects
						(font
							(size 1.27 1.27)
						)
					)
				)
			)
			(pin power_in line
				(at 5.08 -124.46 90)
				(length 7.62)
				(name "GND"
					(effects
						(font
							(size 1.27 1.27)
						)
					)
				)
				(number "168"
					(effects
						(font
							(size 1.27 1.27)
						)
					)
				)
			)
			(pin power_in line
				(at 5.08 119.38 270)
				(length 7.62)
				(name "VCC"
					(effects
						(font
							(size 1.27 1.27)
						)
					)
				)
				(number "169"
					(effects
						(font
							(size 1.27 1.27)
						)
					)
				)
			)
			(pin output inverted
				(at -50.8 -40.64 0)
				(length 7.62)
				(name "/BR"
					(effects
						(font
							(size 1.27 1.27)
						)
					)
				)
				(number "17"
					(effects
						(font
							(size 1.27 1.27)
						)
					)
				)
			)
			(pin bidirectional line
				(at 55.88 81.28 180)
				(length 7.62)
				(name "HAD3"
					(effects
						(font
							(size 1.27 1.27)
						)
					)
				)
				(number "170"
					(effects
						(font
							(size 1.27 1.27)
						)
					)
				)
			)
			(pin bidirectional line
				(at 55.88 83.82 180)
				(length 7.62)
				(name "HAD2"
					(effects
						(font
							(size 1.27 1.27)
						)
					)
				)
				(number "171"
					(effects
						(font
							(size 1.27 1.27)
						)
					)
				)
			)
			(pin bidirectional line
				(at 55.88 86.36 180)
				(length 7.62)
				(name "HAD1"
					(effects
						(font
							(size 1.27 1.27)
						)
					)
				)
				(number "172"
					(effects
						(font
							(size 1.27 1.27)
						)
					)
				)
			)
			(pin bidirectional line
				(at 55.88 88.9 180)
				(length 7.62)
				(name "HAD0"
					(effects
						(font
							(size 1.27 1.27)
						)
					)
				)
				(number "173"
					(effects
						(font
							(size 1.27 1.27)
						)
					)
				)
			)
			(pin bidirectional line
				(at 55.88 -86.36 180)
				(length 7.62)
				(name "TIO2"
					(effects
						(font
							(size 1.27 1.27)
						)
					)
				)
				(number "174"
					(effects
						(font
							(size 1.27 1.27)
						)
					)
				)
			)
			(pin bidirectional line
				(at 55.88 -83.82 180)
				(length 7.62)
				(name "TIO1"
					(effects
						(font
							(size 1.27 1.27)
						)
					)
				)
				(number "175"
					(effects
						(font
							(size 1.27 1.27)
						)
					)
				)
			)
			(pin bidirectional line
				(at 55.88 -81.28 180)
				(length 7.62)
				(name "TIO0"
					(effects
						(font
							(size 1.27 1.27)
						)
					)
				)
				(number "176"
					(effects
						(font
							(size 1.27 1.27)
						)
					)
				)
			)
			(pin bidirectional line
				(at -50.8 -86.36 0)
				(length 7.62)
				(name "PE0/RXD"
					(effects
						(font
							(size 1.27 1.27)
						)
					)
				)
				(number "177"
					(effects
						(font
							(size 1.27 1.27)
						)
					)
				)
			)
			(pin bidirectional clock
				(at -50.8 -91.44 0)
				(length 7.62)
				(name "PE2/SCLK"
					(effects
						(font
							(size 1.27 1.27)
						)
					)
				)
				(number "178"
					(effects
						(font
							(size 1.27 1.27)
						)
					)
				)
			)
			(pin power_in line
				(at 15.24 119.38 270)
				(length 7.62)
				(name "VCC"
					(effects
						(font
							(size 1.27 1.27)
						)
					)
				)
				(number "179"
					(effects
						(font
							(size 1.27 1.27)
						)
					)
				)
			)
			(pin power_in line
				(at 10.16 119.38 270)
				(length 7.62)
				(name "VCC"
					(effects
						(font
							(size 1.27 1.27)
						)
					)
				)
				(number "18"
					(effects
						(font
							(size 1.27 1.27)
						)
					)
				)
			)
			(pin power_in line
				(at 12.7 -124.46 90)
				(length 7.62)
				(name "GND"
					(effects
						(font
							(size 1.27 1.27)
						)
					)
				)
				(number "180"
					(effects
						(font
							(size 1.27 1.27)
						)
					)
				)
			)
			(pin output inverted
				(at 55.88 -40.64 180)
				(length 7.62)
				(name "/HINTA"
					(effects
						(font
							(size 1.27 1.27)
						)
					)
				)
				(number "181"
					(effects
						(font
							(size 1.27 1.27)
						)
					)
				)
			)
			(pin power_in line
				(at 25.4 119.38 270)
				(length 7.62)
				(name "VCC"
					(effects
						(font
							(size 1.27 1.27)
						)
					)
				)
				(number "182"
					(effects
						(font
							(size 1.27 1.27)
						)
					)
				)
			)
			(pin power_in line
				(at 25.4 -124.46 90)
				(length 7.62)
				(name "GND"
					(effects
						(font
							(size 1.27 1.27)
						)
					)
				)
				(number "183"
					(effects
						(font
							(size 1.27 1.27)
						)
					)
				)
			)
			(pin bidirectional line
				(at -50.8 -88.9 0)
				(length 7.62)
				(name "PE1/TXD"
					(effects
						(font
							(size 1.27 1.27)
						)
					)
				)
				(number "184"
					(effects
						(font
							(size 1.27 1.27)
						)
					)
				)
			)
			(pin bidirectional line
				(at 55.88 -68.58 180)
				(length 7.62)
				(name "PD2/SC12"
					(effects
						(font
							(size 1.27 1.27)
						)
					)
				)
				(number "185"
					(effects
						(font
							(size 1.27 1.27)
						)
					)
				)
			)
			(pin bidirectional line
				(at 55.88 -66.04 180)
				(length 7.62)
				(name "PD1/SC11"
					(effects
						(font
							(size 1.27 1.27)
						)
					)
				)
				(number "186"
					(effects
						(font
							(size 1.27 1.27)
						)
					)
				)
			)
			(pin bidirectional line
				(at 55.88 -63.5 180)
				(length 7.62)
				(name "PD0/SC10"
					(effects
						(font
							(size 1.27 1.27)
						)
					)
				)
				(number "187"
					(effects
						(font
							(size 1.27 1.27)
						)
					)
				)
			)
			(pin bidirectional line
				(at 55.88 -76.2 180)
				(length 7.62)
				(name "PD5/STD1"
					(effects
						(font
							(size 1.27 1.27)
						)
					)
				)
				(number "188"
					(effects
						(font
							(size 1.27 1.27)
						)
					)
				)
			)
			(pin bidirectional line
				(at 55.88 -71.12 180)
				(length 7.62)
				(name "PD3/SCK1"
					(effects
						(font
							(size 1.27 1.27)
						)
					)
				)
				(number "189"
					(effects
						(font
							(size 1.27 1.27)
						)
					)
				)
			)
			(pin power_in line
				(at 10.16 -124.46 90)
				(length 7.62)
				(name "GND"
					(effects
						(font
							(size 1.27 1.27)
						)
					)
				)
				(number "19"
					(effects
						(font
							(size 1.27 1.27)
						)
					)
				)
			)
			(pin bidirectional line
				(at 55.88 -73.66 180)
				(length 7.62)
				(name "PD4/SRD1"
					(effects
						(font
							(size 1.27 1.27)
						)
					)
				)
				(number "190"
					(effects
						(font
							(size 1.27 1.27)
						)
					)
				)
			)
			(pin bidirectional line
				(at 55.88 -55.88 180)
				(length 7.62)
				(name "PC4/SRD0"
					(effects
						(font
							(size 1.27 1.27)
						)
					)
				)
				(number "191"
					(effects
						(font
							(size 1.27 1.27)
						)
					)
				)
			)
			(pin bidirectional line
				(at 55.88 -53.34 180)
				(length 7.62)
				(name "PC3/SCK0"
					(effects
						(font
							(size 1.27 1.27)
						)
					)
				)
				(number "192"
					(effects
						(font
							(size 1.27 1.27)
						)
					)
				)
			)
			(pin power_in line
				(at 12.7 119.38 270)
				(length 7.62)
				(name "VCC"
					(effects
						(font
							(size 1.27 1.27)
						)
					)
				)
				(number "193"
					(effects
						(font
							(size 1.27 1.27)
						)
					)
				)
			)
			(pin power_in line
				(at 15.24 -124.46 90)
				(length 7.62)
				(name "GND"
					(effects
						(font
							(size 1.27 1.27)
						)
					)
				)
				(number "194"
					(effects
						(font
							(size 1.27 1.27)
						)
					)
				)
			)
			(pin bidirectional line
				(at 55.88 -58.42 180)
				(length 7.62)
				(name "PC5/STD0"
					(effects
						(font
							(size 1.27 1.27)
						)
					)
				)
				(number "195"
					(effects
						(font
							(size 1.27 1.27)
						)
					)
				)
			)
			(pin bidirectional line
				(at 55.88 -45.72 180)
				(length 7.62)
				(name "PC0/SC00"
					(effects
						(font
							(size 1.27 1.27)
						)
					)
				)
				(number "196"
					(effects
						(font
							(size 1.27 1.27)
						)
					)
				)
			)
			(pin bidirectional line
				(at 55.88 -48.26 180)
				(length 7.62)
				(name "PC1/SC01"
					(effects
						(font
							(size 1.27 1.27)
						)
					)
				)
				(number "197"
					(effects
						(font
							(size 1.27 1.27)
						)
					)
				)
			)
			(pin bidirectional line
				(at 55.88 -50.8 180)
				(length 7.62)
				(name "PC2/SC02"
					(effects
						(font
							(size 1.27 1.27)
						)
					)
				)
				(number "198"
					(effects
						(font
							(size 1.27 1.27)
						)
					)
				)
			)
			(pin output inverted
				(at 55.88 99.06 180)
				(length 7.62)
				(name "/DE"
					(effects
						(font
							(size 1.27 1.27)
						)
					)
				)
				(number "199"
					(effects
						(font
							(size 1.27 1.27)
						)
					)
				)
			)
			(pin output line
				(at -50.8 -22.86 0)
				(length 7.62)
				(name "AA1/RAS1"
					(effects
						(font
							(size 1.27 1.27)
						)
					)
				)
				(number "2"
					(effects
						(font
							(size 1.27 1.27)
						)
					)
				)
			)
			(pin output line
				(at -50.8 -25.4 0)
				(length 7.62)
				(name "AA2/RAS2"
					(effects
						(font
							(size 1.27 1.27)
						)
					)
				)
				(number "20"
					(effects
						(font
							(size 1.27 1.27)
						)
					)
				)
			)
			(pin input line
				(at 55.88 93.98 180)
				(length 7.62)
				(name "TMS"
					(effects
						(font
							(size 1.27 1.27)
						)
					)
				)
				(number "200"
					(effects
						(font
							(size 1.27 1.27)
						)
					)
				)
			)
			(pin input line
				(at 55.88 104.14 180)
				(length 7.62)
				(name "TCK"
					(effects
						(font
							(size 1.27 1.27)
						)
					)
				)
				(number "201"
					(effects
						(font
							(size 1.27 1.27)
						)
					)
				)
			)
			(pin input line
				(at 55.88 106.68 180)
				(length 7.62)
				(name "TDI"
					(effects
						(font
							(size 1.27 1.27)
						)
					)
				)
				(number "202"
					(effects
						(font
							(size 1.27 1.27)
						)
					)
				)
			)
			(pin output line
				(at 55.88 101.6 180)
				(length 7.62)
				(name "TDO"
					(effects
						(font
							(size 1.27 1.27)
						)
					)
				)
				(number "203"
					(effects
						(font
							(size 1.27 1.27)
						)
					)
				)
			)
			(pin input inverted
				(at 55.88 96.52 180)
				(length 7.62)
				(name "/TRST"
					(effects
						(font
							(size 1.27 1.27)
						)
					)
				)
				(number "204"
					(effects
						(font
							(size 1.27 1.27)
						)
					)
				)
			)
			(pin output inverted
				(at -50.8 -35.56 0)
				(length 7.62)
				(name "/BS"
					(effects
						(font
							(size 1.27 1.27)
						)
					)
				)
				(number "205"
					(effects
						(font
							(size 1.27 1.27)
						)
					)
				)
			)
			(pin output inverted
				(at -50.8 -48.26 0)
				(length 7.62)
				(name "/BL"
					(effects
						(font
							(size 1.27 1.27)
						)
					)
				)
				(number "206"
					(effects
						(font
							(size 1.27 1.27)
						)
					)
				)
			)
			(pin output line
				(at -50.8 -27.94 0)
				(length 7.62)
				(name "AA3/RAS3"
					(effects
						(font
							(size 1.27 1.27)
						)
					)
				)
				(number "21"
					(effects
						(font
							(size 1.27 1.27)
						)
					)
				)
			)
			(pin output inverted
				(at -50.8 -33.02 0)
				(length 7.62)
				(name "/WR"
					(effects
						(font
							(size 1.27 1.27)
						)
					)
				)
				(number "22"
					(effects
						(font
							(size 1.27 1.27)
						)
					)
				)
			)
			(pin output inverted
				(at -50.8 -30.48 0)
				(length 7.62)
				(name "/RD"
					(effects
						(font
							(size 1.27 1.27)
						)
					)
				)
				(number "23"
					(effects
						(font
							(size 1.27 1.27)
						)
					)
				)
			)
			(pin output clock
				(at -50.8 -99.06 0)
				(length 7.62)
				(name "XTAL"
					(effects
						(font
							(size 1.27 1.27)
						)
					)
				)
				(number "24"
					(effects
						(font
							(size 1.27 1.27)
						)
					)
				)
			)
			(pin power_in line
				(at 17.78 119.38 270)
				(length 7.62)
				(name "VCC"
					(effects
						(font
							(size 1.27 1.27)
						)
					)
				)
				(number "25"
					(effects
						(font
							(size 1.27 1.27)
						)
					)
				)
			)
			(pin input clock
				(at -50.8 -96.52 0)
				(length 7.62)
				(name "EXTAL"
					(effects
						(font
							(size 1.27 1.27)
						)
					)
				)
				(number "26"
					(effects
						(font
							(size 1.27 1.27)
						)
					)
				)
			)
			(pin power_in line
				(at 17.78 -124.46 90)
				(length 7.62)
				(name "GND"
					(effects
						(font
							(size 1.27 1.27)
						)
					)
				)
				(number "27"
					(effects
						(font
							(size 1.27 1.27)
						)
					)
				)
			)
			(pin output inverted_clock
				(at -50.8 -55.88 0)
				(length 7.62)
				(name "/BCLK"
					(effects
						(font
							(size 1.27 1.27)
						)
					)
				)
				(number "28"
					(effects
						(font
							(size 1.27 1.27)
						)
					)
				)
			)
			(pin output line
				(at -50.8 106.68 0)
				(length 7.62)
				(name "A0"
					(effects
						(font
							(size 1.27 1.27)
						)
					)
				)
				(number "29"
					(effects
						(font
							(size 1.27 1.27)
						)
					)
				)
			)
			(pin power_in line
				(at 7.62 119.38 270)
				(length 7.62)
				(name "VCC"
					(effects
						(font
							(size 1.27 1.27)
						)
					)
				)
				(number "3"
					(effects
						(font
							(size 1.27 1.27)
						)
					)
				)
			)
			(pin output line
				(at -50.8 104.14 0)
				(length 7.62)
				(name "A1"
					(effects
						(font
							(size 1.27 1.27)
						)
					)
				)
				(number "30"
					(effects
						(font
							(size 1.27 1.27)
						)
					)
				)
			)
			(pin power_in line
				(at -33.02 -124.46 90)
				(length 7.62)
				(name "GND"
					(effects
						(font
							(size 1.27 1.27)
						)
					)
				)
				(number "31"
					(effects
						(font
							(size 1.27 1.27)
						)
					)
				)
			)
			(pin power_in line
				(at -33.02 119.38 270)
				(length 7.62)
				(name "VCC"
					(effects
						(font
							(size 1.27 1.27)
						)
					)
				)
				(number "32"
					(effects
						(font
							(size 1.27 1.27)
						)
					)
				)
			)
			(pin output line
				(at -50.8 101.6 0)
				(length 7.62)
				(name "A2"
					(effects
						(font
							(size 1.27 1.27)
						)
					)
				)
				(number "33"
					(effects
						(font
							(size 1.27 1.27)
						)
					)
				)
			)
			(pin output line
				(at -50.8 99.06 0)
				(length 7.62)
				(name "A3"
					(effects
						(font
							(size 1.27 1.27)
						)
					)
				)
				(number "34"
					(effects
						(font
							(size 1.27 1.27)
						)
					)
				)
			)
			(pin output line
				(at -50.8 96.52 0)
				(length 7.62)
				(name "A4"
					(effects
						(font
							(size 1.27 1.27)
						)
					)
				)
				(number "35"
					(effects
						(font
							(size 1.27 1.27)
						)
					)
				)
			)
			(pin output line
				(at -50.8 93.98 0)
				(length 7.62)
				(name "A5"
					(effects
						(font
							(size 1.27 1.27)
						)
					)
				)
				(number "36"
					(effects
						(font
							(size 1.27 1.27)
						)
					)
				)
			)
			(pin power_in line
				(at -30.48 -124.46 90)
				(length 7.62)
				(name "GND"
					(effects
						(font
							(size 1.27 1.27)
						)
					)
				)
				(number "37"
					(effects
						(font
							(size 1.27 1.27)
						)
					)
				)
			)
			(pin power_in line
				(at -30.48 119.38 270)
				(length 7.62)
				(name "VCC"
					(effects
						(font
							(size 1.27 1.27)
						)
					)
				)
				(number "38"
					(effects
						(font
							(size 1.27 1.27)
						)
					)
				)
			)
			(pin output line
				(at -50.8 91.44 0)
				(length 7.62)
				(name "A6"
					(effects
						(font
							(size 1.27 1.27)
						)
					)
				)
				(number "39"
					(effects
						(font
							(size 1.27 1.27)
						)
					)
				)
			)
			(pin power_in line
				(at 7.62 -124.46 90)
				(length 7.62)
				(name "GND"
					(effects
						(font
							(size 1.27 1.27)
						)
					)
				)
				(number "4"
					(effects
						(font
							(size 1.27 1.27)
						)
					)
				)
			)
			(pin output line
				(at -50.8 88.9 0)
				(length 7.62)
				(name "A7"
					(effects
						(font
							(size 1.27 1.27)
						)
					)
				)
				(number "40"
					(effects
						(font
							(size 1.27 1.27)
						)
					)
				)
			)
			(pin output line
				(at -50.8 86.36 0)
				(length 7.62)
				(name "A8"
					(effects
						(font
							(size 1.27 1.27)
						)
					)
				)
				(number "41"
					(effects
						(font
							(size 1.27 1.27)
						)
					)
				)
			)
			(pin output line
				(at -50.8 83.82 0)
				(length 7.62)
				(name "A9"
					(effects
						(font
							(size 1.27 1.27)
						)
					)
				)
				(number "42"
					(effects
						(font
							(size 1.27 1.27)
						)
					)
				)
			)
			(pin power_in line
				(at -27.94 -124.46 90)
				(length 7.62)
				(name "GND"
					(effects
						(font
							(size 1.27 1.27)
						)
					)
				)
				(number "43"
					(effects
						(font
							(size 1.27 1.27)
						)
					)
				)
			)
			(pin power_in line
				(at -27.94 119.38 270)
				(length 7.62)
				(name "VCC"
					(effects
						(font
							(size 1.27 1.27)
						)
					)
				)
				(number "44"
					(effects
						(font
							(size 1.27 1.27)
						)
					)
				)
			)
			(pin output line
				(at -50.8 81.28 0)
				(length 7.62)
				(name "A10"
					(effects
						(font
							(size 1.27 1.27)
						)
					)
				)
				(number "45"
					(effects
						(font
							(size 1.27 1.27)
						)
					)
				)
			)
			(pin output line
				(at -50.8 78.74 0)
				(length 7.62)
				(name "A11"
					(effects
						(font
							(size 1.27 1.27)
						)
					)
				)
				(number "46"
					(effects
						(font
							(size 1.27 1.27)
						)
					)
				)
			)
			(pin output line
				(at -50.8 76.2 0)
				(length 7.62)
				(name "A12"
					(effects
						(font
							(size 1.27 1.27)
						)
					)
				)
				(number "47"
					(effects
						(font
							(size 1.27 1.27)
						)
					)
				)
			)
			(pin output line
				(at -50.8 73.66 0)
				(length 7.62)
				(name "A13"
					(effects
						(font
							(size 1.27 1.27)
						)
					)
				)
				(number "48"
					(effects
						(font
							(size 1.27 1.27)
						)
					)
				)
			)
			(pin power_in line
				(at -25.4 -124.46 90)
				(length 7.62)
				(name "GND"
					(effects
						(font
							(size 1.27 1.27)
						)
					)
				)
				(number "49"
					(effects
						(font
							(size 1.27 1.27)
						)
					)
				)
			)
			(pin output clock
				(at -50.8 -78.74 0)
				(length 7.62)
				(name "CLKOUT"
					(effects
						(font
							(size 1.27 1.27)
						)
					)
				)
				(number "5"
					(effects
						(font
							(size 1.27 1.27)
						)
					)
				)
			)
			(pin power_in line
				(at -25.4 119.38 270)
				(length 7.62)
				(name "VCC"
					(effects
						(font
							(size 1.27 1.27)
						)
					)
				)
				(number "50"
					(effects
						(font
							(size 1.27 1.27)
						)
					)
				)
			)
			(pin output line
				(at -50.8 71.12 0)
				(length 7.62)
				(name "A14"
					(effects
						(font
							(size 1.27 1.27)
						)
					)
				)
				(number "51"
					(effects
						(font
							(size 1.27 1.27)
						)
					)
				)
			)
			(pin output line
				(at -50.8 68.58 0)
				(length 7.62)
				(name "A15"
					(effects
						(font
							(size 1.27 1.27)
						)
					)
				)
				(number "52"
					(effects
						(font
							(size 1.27 1.27)
						)
					)
				)
			)
			(pin output line
				(at -50.8 66.04 0)
				(length 7.62)
				(name "A16"
					(effects
						(font
							(size 1.27 1.27)
						)
					)
				)
				(number "55"
					(effects
						(font
							(size 1.27 1.27)
						)
					)
				)
			)
			(pin output line
				(at -50.8 63.5 0)
				(length 7.62)
				(name "A17"
					(effects
						(font
							(size 1.27 1.27)
						)
					)
				)
				(number "56"
					(effects
						(font
							(size 1.27 1.27)
						)
					)
				)
			)
			(pin power_in line
				(at -22.86 -124.46 90)
				(length 7.62)
				(name "GND"
					(effects
						(font
							(size 1.27 1.27)
						)
					)
				)
				(number "57"
					(effects
						(font
							(size 1.27 1.27)
						)
					)
				)
			)
			(pin power_in line
				(at -22.86 119.38 270)
				(length 7.62)
				(name "VCC"
					(effects
						(font
							(size 1.27 1.27)
						)
					)
				)
				(number "58"
					(effects
						(font
							(size 1.27 1.27)
						)
					)
				)
			)
			(pin output line
				(at -50.8 60.96 0)
				(length 7.62)
				(name "A18"
					(effects
						(font
							(size 1.27 1.27)
						)
					)
				)
				(number "59"
					(effects
						(font
							(size 1.27 1.27)
						)
					)
				)
			)
			(pin output clock
				(at -50.8 -53.34 0)
				(length 7.62)
				(name "BCLK"
					(effects
						(font
							(size 1.27 1.27)
						)
					)
				)
				(number "6"
					(effects
						(font
							(size 1.27 1.27)
						)
					)
				)
			)
			(pin output line
				(at -50.8 58.42 0)
				(length 7.62)
				(name "A19"
					(effects
						(font
							(size 1.27 1.27)
						)
					)
				)
				(number "60"
					(effects
						(font
							(size 1.27 1.27)
						)
					)
				)
			)
			(pin output line
				(at -50.8 55.88 0)
				(length 7.62)
				(name "A20"
					(effects
						(font
							(size 1.27 1.27)
						)
					)
				)
				(number "61"
					(effects
						(font
							(size 1.27 1.27)
						)
					)
				)
			)
			(pin output line
				(at -50.8 53.34 0)
				(length 7.62)
				(name "A21"
					(effects
						(font
							(size 1.27 1.27)
						)
					)
				)
				(number "62"
					(effects
						(font
							(size 1.27 1.27)
						)
					)
				)
			)
			(pin power_in line
				(at -20.32 -124.46 90)
				(length 7.62)
				(name "GND"
					(effects
						(font
							(size 1.27 1.27)
						)
					)
				)
				(number "63"
					(effects
						(font
							(size 1.27 1.27)
						)
					)
				)
			)
			(pin power_in line
				(at -20.32 119.38 270)
				(length 7.62)
				(name "VCC"
					(effects
						(font
							(size 1.27 1.27)
						)
					)
				)
				(number "64"
					(effects
						(font
							(size 1.27 1.27)
						)
					)
				)
			)
			(pin output line
				(at -50.8 50.8 0)
				(length 7.62)
				(name "A22"
					(effects
						(font
							(size 1.27 1.27)
						)
					)
				)
				(number "65"
					(effects
						(font
							(size 1.27 1.27)
						)
					)
				)
			)
			(pin output line
				(at -50.8 48.26 0)
				(length 7.62)
				(name "A23"
					(effects
						(font
							(size 1.27 1.27)
						)
					)
				)
				(number "66"
					(effects
						(font
							(size 1.27 1.27)
						)
					)
				)
			)
			(pin bidirectional line
				(at -50.8 43.18 0)
				(length 7.62)
				(name "D0"
					(effects
						(font
							(size 1.27 1.27)
						)
					)
				)
				(number "67"
					(effects
						(font
							(size 1.27 1.27)
						)
					)
				)
			)
			(pin bidirectional line
				(at -50.8 40.64 0)
				(length 7.62)
				(name "D1"
					(effects
						(font
							(size 1.27 1.27)
						)
					)
				)
				(number "68"
					(effects
						(font
							(size 1.27 1.27)
						)
					)
				)
			)
			(pin bidirectional line
				(at -50.8 38.1 0)
				(length 7.62)
				(name "D2"
					(effects
						(font
							(size 1.27 1.27)
						)
					)
				)
				(number "69"
					(effects
						(font
							(size 1.27 1.27)
						)
					)
				)
			)
			(pin output inverted
				(at -50.8 -50.8 0)
				(length 7.62)
				(name "/CAS"
					(effects
						(font
							(size 1.27 1.27)
						)
					)
				)
				(number "7"
					(effects
						(font
							(size 1.27 1.27)
						)
					)
				)
			)
			(pin power_in line
				(at -17.78 -124.46 90)
				(length 7.62)
				(name "GND"
					(effects
						(font
							(size 1.27 1.27)
						)
					)
				)
				(number "70"
					(effects
						(font
							(size 1.27 1.27)
						)
					)
				)
			)
			(pin power_in line
				(at -17.78 119.38 270)
				(length 7.62)
				(name "VCC"
					(effects
						(font
							(size 1.27 1.27)
						)
					)
				)
				(number "71"
					(effects
						(font
							(size 1.27 1.27)
						)
					)
				)
			)
			(pin bidirectional line
				(at -50.8 35.56 0)
				(length 7.62)
				(name "D3"
					(effects
						(font
							(size 1.27 1.27)
						)
					)
				)
				(number "72"
					(effects
						(font
							(size 1.27 1.27)
						)
					)
				)
			)
			(pin bidirectional line
				(at -50.8 33.02 0)
				(length 7.62)
				(name "D4"
					(effects
						(font
							(size 1.27 1.27)
						)
					)
				)
				(number "73"
					(effects
						(font
							(size 1.27 1.27)
						)
					)
				)
			)
			(pin bidirectional line
				(at -50.8 30.48 0)
				(length 7.62)
				(name "D5"
					(effects
						(font
							(size 1.27 1.27)
						)
					)
				)
				(number "74"
					(effects
						(font
							(size 1.27 1.27)
						)
					)
				)
			)
			(pin bidirectional line
				(at -50.8 27.94 0)
				(length 7.62)
				(name "D6"
					(effects
						(font
							(size 1.27 1.27)
						)
					)
				)
				(number "75"
					(effects
						(font
							(size 1.27 1.27)
						)
					)
				)
			)
			(pin bidirectional line
				(at -50.8 25.4 0)
				(length 7.62)
				(name "D7"
					(effects
						(font
							(size 1.27 1.27)
						)
					)
				)
				(number "76"
					(effects
						(font
							(size 1.27 1.27)
						)
					)
				)
			)
			(pin bidirectional line
				(at -50.8 22.86 0)
				(length 7.62)
				(name "D8"
					(effects
						(font
							(size 1.27 1.27)
						)
					)
				)
				(number "77"
					(effects
						(font
							(size 1.27 1.27)
						)
					)
				)
			)
			(pin power_in line
				(at 20.32 -124.46 90)
				(length 7.62)
				(name "GND"
					(effects
						(font
							(size 1.27 1.27)
						)
					)
				)
				(number "78"
					(effects
						(font
							(size 1.27 1.27)
						)
					)
				)
			)
			(pin power_in line
				(at 20.32 119.38 270)
				(length 7.62)
				(name "VCC"
					(effects
						(font
							(size 1.27 1.27)
						)
					)
				)
				(number "79"
					(effects
						(font
							(size 1.27 1.27)
						)
					)
				)
			)
			(pin input inverted
				(at -50.8 -38.1 0)
				(length 7.62)
				(name "/TA"
					(effects
						(font
							(size 1.27 1.27)
						)
					)
				)
				(number "8"
					(effects
						(font
							(size 1.27 1.27)
						)
					)
				)
			)
			(pin power_in line
				(at -15.24 -124.46 90)
				(length 7.62)
				(name "GND"
					(effects
						(font
							(size 1.27 1.27)
						)
					)
				)
				(number "80"
					(effects
						(font
							(size 1.27 1.27)
						)
					)
				)
			)
			(pin power_in line
				(at -15.24 119.38 270)
				(length 7.62)
				(name "VCC"
					(effects
						(font
							(size 1.27 1.27)
						)
					)
				)
				(number "81"
					(effects
						(font
							(size 1.27 1.27)
						)
					)
				)
			)
			(pin bidirectional line
				(at -50.8 20.32 0)
				(length 7.62)
				(name "D9"
					(effects
						(font
							(size 1.27 1.27)
						)
					)
				)
				(number "82"
					(effects
						(font
							(size 1.27 1.27)
						)
					)
				)
			)
			(pin bidirectional line
				(at -50.8 17.78 0)
				(length 7.62)
				(name "D10"
					(effects
						(font
							(size 1.27 1.27)
						)
					)
				)
				(number "83"
					(effects
						(font
							(size 1.27 1.27)
						)
					)
				)
			)
			(pin bidirectional line
				(at -50.8 15.24 0)
				(length 7.62)
				(name "D11"
					(effects
						(font
							(size 1.27 1.27)
						)
					)
				)
				(number "84"
					(effects
						(font
							(size 1.27 1.27)
						)
					)
				)
			)
			(pin bidirectional line
				(at -50.8 12.7 0)
				(length 7.62)
				(name "D12"
					(effects
						(font
							(size 1.27 1.27)
						)
					)
				)
				(number "85"
					(effects
						(font
							(size 1.27 1.27)
						)
					)
				)
			)
			(pin bidirectional line
				(at -50.8 10.16 0)
				(length 7.62)
				(name "D13"
					(effects
						(font
							(size 1.27 1.27)
						)
					)
				)
				(number "86"
					(effects
						(font
							(size 1.27 1.27)
						)
					)
				)
			)
			(pin bidirectional line
				(at -50.8 7.62 0)
				(length 7.62)
				(name "D14"
					(effects
						(font
							(size 1.27 1.27)
						)
					)
				)
				(number "87"
					(effects
						(font
							(size 1.27 1.27)
						)
					)
				)
			)
			(pin power_in line
				(at -12.7 -124.46 90)
				(length 7.62)
				(name "GND"
					(effects
						(font
							(size 1.27 1.27)
						)
					)
				)
				(number "88"
					(effects
						(font
							(size 1.27 1.27)
						)
					)
				)
			)
			(pin power_in line
				(at -12.7 119.38 270)
				(length 7.62)
				(name "VCC"
					(effects
						(font
							(size 1.27 1.27)
						)
					)
				)
				(number "89"
					(effects
						(font
							(size 1.27 1.27)
						)
					)
				)
			)
			(pin input line
				(at -50.8 -76.2 0)
				(length 7.62)
				(name "PINIT/NMI"
					(effects
						(font
							(size 1.27 1.27)
						)
					)
				)
				(number "9"
					(effects
						(font
							(size 1.27 1.27)
						)
					)
				)
			)
			(pin bidirectional line
				(at -50.8 5.08 0)
				(length 7.62)
				(name "D15"
					(effects
						(font
							(size 1.27 1.27)
						)
					)
				)
				(number "90"
					(effects
						(font
							(size 1.27 1.27)
						)
					)
				)
			)
			(pin bidirectional line
				(at -50.8 2.54 0)
				(length 7.62)
				(name "D16"
					(effects
						(font
							(size 1.27 1.27)
						)
					)
				)
				(number "91"
					(effects
						(font
							(size 1.27 1.27)
						)
					)
				)
			)
			(pin bidirectional line
				(at -50.8 0 0)
				(length 7.62)
				(name "D17"
					(effects
						(font
							(size 1.27 1.27)
						)
					)
				)
				(number "92"
					(effects
						(font
							(size 1.27 1.27)
						)
					)
				)
			)
			(pin bidirectional line
				(at -50.8 -2.54 0)
				(length 7.62)
				(name "D18"
					(effects
						(font
							(size 1.27 1.27)
						)
					)
				)
				(number "93"
					(effects
						(font
							(size 1.27 1.27)
						)
					)
				)
			)
			(pin bidirectional line
				(at -50.8 -5.08 0)
				(length 7.62)
				(name "D19"
					(effects
						(font
							(size 1.27 1.27)
						)
					)
				)
				(number "94"
					(effects
						(font
							(size 1.27 1.27)
						)
					)
				)
			)
			(pin bidirectional line
				(at -50.8 -7.62 0)
				(length 7.62)
				(name "D20"
					(effects
						(font
							(size 1.27 1.27)
						)
					)
				)
				(number "95"
					(effects
						(font
							(size 1.27 1.27)
						)
					)
				)
			)
			(pin power_in line
				(at -10.16 -124.46 90)
				(length 7.62)
				(name "GND"
					(effects
						(font
							(size 1.27 1.27)
						)
					)
				)
				(number "96"
					(effects
						(font
							(size 1.27 1.27)
						)
					)
				)
			)
			(pin power_in line
				(at -10.16 119.38 270)
				(length 7.62)
				(name "VCC"
					(effects
						(font
							(size 1.27 1.27)
						)
					)
				)
				(number "97"
					(effects
						(font
							(size 1.27 1.27)
						)
					)
				)
			)
			(pin bidirectional line
				(at -50.8 -10.16 0)
				(length 7.62)
				(name "D21"
					(effects
						(font
							(size 1.27 1.27)
						)
					)
				)
				(number "98"
					(effects
						(font
							(size 1.27 1.27)
						)
					)
				)
			)
			(pin bidirectional line
				(at -50.8 -12.7 0)
				(length 7.62)
				(name "D22"
					(effects
						(font
							(size 1.27 1.27)
						)
					)
				)
				(number "99"
					(effects
						(font
							(size 1.27 1.27)
						)
					)
				)
			)
		)
	)
)